…
## Coral

Get the species list and their ids


```r
coral_species()
#> # A tibble: 1,548 x 2
#>    name                       id   
#>    <chr>                      <chr>
#>  1 Acanthastrea brevis        3    
#>  2 Acanthastrea echinata      4    
#>  3 Acanthastrea hemprichi     6    
#>  4 Acanthastrea ishigakiensis 8    
#>  5 Acanthastrea regularis     12   
#>  6 Acanthastrea rotundoflora  13   
#>  7 Acanthastrea subechinata   14   
#>  8 Acropora abrolhosensis     16   
#>  9 Acropora abrotanoides      17   
#> 10 Acropora aculeus           18   
#> # … with 1,538 more rows
```

Get data by taxon


```r
coral_taxa(80)
#> # A tibble: 3,540 x 25
#>    observation_id access user_id specie_id specie_name location_id location_name
#>             <int>  <int>   <int>     <int> <chr>             <int> <chr>        
#>  1         157133      1      10        80 Acropora h…           1 Global estim…
#>  2         156961      1      14        80 Acropora h…         409 Indo-Pacific…
#>  3           5781      1       1        80 Acropora h…           1 Global estim…
#>  4         156610      1       2        80 Acropora h…         500 Tiao-Shi, Na…
#>  5         158118      1      10        80 Acropora h…         409 Indo-Pacific…
#>  6         119211      1      49        80 Acropora h…           1 Global estim…
#>  7         158211      1      10        80 Acropora h…         413 Big Broadhur…
#>  8          90294      1      15        80 Acropora h…         341 Xiaodonghai,…
#>  9          90294      1      15        80 Acropora h…         341 Xiaodonghai,…
#> 10          90294      1      15        80 Acropora h…         341 Xiaodonghai,…
#> # … with 3,530 more rows, and 18 more variables: latitude <dbl>,
#> #   longitude <dbl>, resource_id <int>, resource_secondary_id <int>,
#> #   measurement_id <int>, trait_id <int>, trait_name <chr>, standard_id <int>,
#> #   standard_unit <chr>, methodology_id <int>, methodology_name <chr>,
#> #   value <chr>, value_type <chr>, precision <dbl>, precision_type <chr>,
#> #   precision_upper <dbl>, replicates <int>, notes <chr>
```
…
