…
Summarise data from the output `data.frame`


```r
library("dplyr")
out %>%
  group_by(id) %>%
  summarise(mean_result = mean(as.numeric(mean), na.rm = TRUE)) %>%
  arrange(desc(mean_result))
```

```
## # A tibble: 449 x 2
##       id mean_result
##    <int>       <dbl>
##  1  1666       27.36
##  2 16845       27.00
##  3  1669       26.36
##  4 16518       26.00
##  5  1663       25.35
##  6 16742       25.00
##  7  1594       24.78
##  8  1674       22.71
##  9  1606       22.54
## 10  1665       22.46
## # ... with 439 more rows
```
…
