…
Each query term you provide restricts the one before it. This includes zero: passing no query terms will retrieve the whole table.

```r
betydb_query(table = 'citations')
```

```
## # A tibble: 814 × 13
##            author                created_at
## *           <chr>                     <chr>
## 1         Balasko                      <NA>
## 2           Price                      <NA>
## 3        Townsend 2016-04-11T17:24:35-05:00
## 4         Berdahl                      <NA>
## 5     Shiklomanov 2015-07-13T10:21:23-05:00
## 6       Baldocchi 2016-07-12T12:36:53-05:00
## 7  Liu, Changming 2016-07-12T12:44:22-05:00
## 8      Clegg, Max 2016-07-12T12:49:42-05:00
## 9          Wertin 2016-07-12T17:18:39-05:00
## 10       Missaoui                      <NA>
## # ... with 804 more rows, and 11 more variables: doi <chr>,
## #   id <dbl>, journal <chr>, pdf <chr>, pg <chr>, title <chr>,
## #   updated_at <chr>, url <chr>, user_id <dbl>, vol <int>,
## #   year <int>
```
…
Passing an ID should only ever match one result. Note that this is similar, but not identical, to the single-item view from the matching singular bety_<tablename> function. For example, compare `bety_citation(id=1)` and `betydb_query(id = 1, table = 'citations')`. 

If using the new API, regular expression search works...

```r
betydb_query(distn= "~norm", table = 'priors', api_version="beta")
```

```
## # A tibble: 116 × 15
##       id citation_id variable_id  phylogeny distn parama paramb
## *  <int>       <int>       <int>      <chr> <chr>  <dbl>  <dbl>
## 1     40          51           4            lnorm  4.510  0.640
## 2    287         838         568      grass lnorm  0.180  0.430
## 3    288         840         492 Miscanthus lnorm -2.300  0.550
## 4     10         203          22   C3 grass lnorm  1.240  0.900
## 5     48         195          39   C4 crops  norm  0.057  0.006
## 6     69          NA          26            lnorm  1.760  0.380
## 7     49         195          39        CAM  norm  0.033  0.020
## 8     75          NA          21            lnorm  0.210  0.600
## 9     90         276          37   C4 grass  norm 10.000  5.000
## 10    20         277          26            lnorm  2.300  1.000
## # ... with 106 more rows, and 8 more variables: paramc <dbl>,
## #   n <int>, notes <chr>, created_at <chr>, updated_at <chr>,
## #   `number of associated pfts` <int>, view_url <chr>,
## #   edit_url <chr>
```

...including, perversely but sometimes usefully, regular expressions treating numeric values as if they were strings!

```r
betydb_query(parama = "~0.0", table = 'priors', api_version="beta")
```

```
## # A tibble: 34 × 15
##       id citation_id variable_id        phylogeny distn parama
## *  <int>       <int>       <int>            <chr> <chr>  <dbl>
## 1     48         195          39         C4 crops  norm 0.0570
## 2     49         195          39              CAM  norm 0.0330
## 3    171         223         198             tree  unif 0.0010
## 4    238         561          46            trees  unif 0.0200
## 5    240         561         500            trees  unif 0.0100
## 6    241         561         501            trees  unif 0.0100
## 7    242         561         502            trees  unif 0.0100
## 8    243         561         503            trees  unif 0.0100
## 9    131         223          40        evergreen  unif 0.0400
## 10   146         439         195 tundra evergreen  norm 0.0004
## # ... with 24 more rows, and 9 more variables: paramb <dbl>,
## #   paramc <lgl>, n <int>, notes <chr>, created_at <chr>,
## #   updated_at <chr>, `number of associated pfts` <int>,
## #   view_url <chr>, edit_url <chr>
```
…
